…
``` r
tidy_homocide = homocide_df |>
  mutate(city_state = str_c(city, state, sep = ","))

sum_homocide = tidy_homocide |>
  group_by(city_state) |>
  summarize(
    total_homocides = n(),
    total_unsolved_homocides = sum(disposition %in% c("Closed without arrest", "Open/No arrest"))
  )

sum_homocide
```

    ## # A tibble: 51 × 3
    ##    city_state     total_homocides total_unsolved_homocides
    ##    <chr>                    <int>                    <int>
    ##  1 Albuquerque,NM             378                      146
    ##  2 Atlanta,GA                 973                      373
    ##  3 Baltimore,MD              2827                     1825
    ##  4 Baton Rouge,LA             424                      196
    ##  5 Birmingham,AL              800                      347
    ##  6 Boston,MA                  614                      310
    ##  7 Buffalo,NY                 521                      319
    ##  8 Charlotte,NC               687                      206
    ##  9 Chicago,IL                5535                     4073
    ## 10 Cincinnati,OH              694                      309
    ## # ℹ 41 more rows
…
``` r
tidy_df = comb_df |> 
  mutate(
    files = str_replace(files, ".csv", ""),
    group = str_sub(files, 1, 3),
    ID = str_sub(files, 5, 7)) |>
  pivot_longer(week_1:week_8,names_to = "week", values_to = "observation",names_prefix = "week_") |>
  mutate(week = as.numeric(week)) |>
  select(group, ID, week, observation)

tidy_df
```

    ## # A tibble: 160 × 4
    ##    group ID     week observation
    ##    <chr> <chr> <dbl>       <dbl>
    ##  1 con   01        1        0.2 
    ##  2 con   01        2       -1.31
    ##  3 con   01        3        0.66
    ##  4 con   01        4        1.96
    ##  5 con   01        5        0.23
    ##  6 con   01        6        1.09
    ##  7 con   01        7        0.05
    ##  8 con   01        8        1.94
    ##  9 con   02        1        1.13
    ## 10 con   02        2       -0.88
    ## # ℹ 150 more rows
…
